dump.vcd
$date
	Thu Apr 07 14:13:55 2022
$end
$version
	ModelSim Version 10.1d
$end
$timescale
	1ps
$end
$scope module D_latch_vlg_tst $end
$var wire 1 ! q $end
$var wire 1 " qbar $end
$var reg 1 # clk $end
$var reg 1 $ rst $end
$var reg 1 % d $end
$scope module jdff $end
$var reg 1 & q $end
$var wire 1 " qbar $end
$var wire 1 ' clk $end
$var wire 1 ( rst $end
$var wire 1 ) d $end
$upscope $end
$upscope $end
$enddefinitions $end
#0
$dumpvars
0#
1$
x%
x&
x!
x"
x)
1(
0'
$end
#5
1#
1'
0&
1"
0!
#10
0$
0#
0(
0'
#15
1#
1'
x&
x"
x!
#20
0%
0#
0)
0'
#25
1#
1'
0&
1"
0!
#30
1%
0#
1)
0'
#35
1#
1'
1&
0"
1!
